%YAML 1.1
%TAG !u! tag:unity3d.com,2011:
--- !u!1 &8190819447304556875
GameObject:
  m_ObjectHideFlags: 0
  m_CorrespondingSourceObject: {fileID: 0}
  m_PrefabInstance: {fileID: 0}
  m_PrefabAsset: {fileID: 0}
  serializedVersion: 6
  m_Component:
  - component: {fileID: 8190819447304556874}
  - component: {fileID: 8190819447304556873}
  - component: {fileID: 8190819447304556872}
  - component: {fileID: 8190819447304556879}
  - component: {fileID: 6423870892933062650}
  m_Layer: 8
  m_Name: Door_001
  m_TagString: Untagged
  m_Icon: {fileID: 0}
  m_NavMeshLayer: 0
  m_StaticEditorFlags: 4294967295
  m_IsActive: 1
--- !u!4 &8190819447304556874
Transform:
  m_ObjectHideFlags: 0
  m_CorrespondingSourceObject: {fileID: 0}
  m_PrefabInstance: {fileID: 0}
  m_PrefabAsset: {fileID: 0}
  m_GameObject: {fileID: 8190819447304556875}
  m_LocalRotation: {x: -0, y: -0, z: -0, w: 1}
  m_LocalPosition: {x: 2.5, y: 0, z: -1.75}
  m_LocalScale: {x: 1, y: 1, z: 1}
  m_ConstrainProportionsScale: 0
  m_Children:
  - {fileID: 8188932556357070802}
  - {fileID: 8189185842462126729}
  - {fileID: 8188868553475865265}
  - {fileID: 8188969991238629909}
  m_Father: {fileID: 0}
  m_RootOrder: 0
  m_LocalEulerAnglesHint: {x: 0, y: 0, z: 0}
--- !u!114 &8190819447304556873
MonoBehaviour:
  m_ObjectHideFlags: 0
  m_CorrespondingSourceObject: {fileID: 0}
  m_PrefabInstance: {fileID: 0}
  m_PrefabAsset: {fileID: 0}
  m_GameObject: {fileID: 8190819447304556875}
  m_Enabled: 1
  m_EditorHideFlags: 0
  m_Script: {fileID: 11500000, guid: e66d2afc7353f4852ba309a0d0c785f0, type: 3}
  m_Name: 
  m_EditorClassIdentifier: 
  _triggerOpening:
    serializedVersion: 2
    m_Bits: 200
  halfDoorLeftTransform: {fileID: 8188932556357070802}
  halfDoorRightTransform: {fileID: 8189185842462126729}
  slideDistance: 0.88
  speed: 1
  doorOpeningSoundClip: {fileID: 8300000, guid: 80d08fa5dccc64ffa90d6734ce03512e, type: 3}
  doorClosingSoundClip: {fileID: 8300000, guid: 4547fb4d1627d4ce6acc55af375f84f4, type: 3}
--- !u!65 &8190819447304556872
BoxCollider:
  m_ObjectHideFlags: 0
  m_CorrespondingSourceObject: {fileID: 0}
  m_PrefabInstance: {fileID: 0}
  m_PrefabAsset: {fileID: 0}
  m_GameObject: {fileID: 8190819447304556875}
  m_Material: {fileID: 0}
  m_IsTrigger: 1
  m_Enabled: 1
  serializedVersion: 2
  m_Size: {x: 2, y: 0.5, z: 3.5}
  m_Center: {x: 0, y: 0.25, z: 0}
--- !u!82 &8190819447304556879
AudioSource:
  m_ObjectHideFlags: 0
  m_CorrespondingSourceObject: {fileID: 0}
  m_PrefabInstance: {fileID: 0}
  m_PrefabAsset: {fileID: 0}
  m_GameObject: {fileID: 8190819447304556875}
  m_Enabled: 1
  serializedVersion: 4
  OutputAudioMixerGroup: {fileID: 0}
  m_audioClip: {fileID: 0}
  m_PlayOnAwake: 1
  m_Volume: 0.52
  m_Pitch: 1
  Loop: 0
  Mute: 0
  Spatialize: 0
  SpatializePostEffects: 0
  Priority: 128
  DopplerLevel: 1
  MinDistance: 1
  MaxDistance: 10
  Pan2D: 0
  rolloffMode: 0
  BypassEffects: 0
  BypassListenerEffects: 0
  BypassReverbZones: 0
  rolloffCustomCurve:
    serializedVersion: 2
    m_Curve:
    - serializedVersion: 3
      time: 0
      value: 1
      inSlope: 0
      outSlope: 0
      tangentMode: 0
      weightedMode: 0
      inWeight: 0.33333334
      outWeight: 0.33333334
    - serializedVersion: 3
      time: 1
      value: 0
      inSlope: 0
      outSlope: 0
      tangentMode: 0
      weightedMode: 0
      inWeight: 0.33333334
      outWeight: 0.33333334
    m_PreInfinity: 2
    m_PostInfinity: 2
    m_RotationOrder: 4
  panLevelCustomCurve:
    serializedVersion: 2
    m_Curve:
    - serializedVersion: 3
      time: 0
      value: 1
      inSlope: 0
      outSlope: 0
      tangentMode: 0
      weightedMode: 0
      inWeight: 0.33333334
      outWeight: 0.33333334
    m_PreInfinity: 2
    m_PostInfinity: 2
    m_RotationOrder: 0
  spreadCustomCurve:
    serializedVersion: 2
    m_Curve:
    - serializedVersion: 3
      time: 0
      value: 0
      inSlope: 0
      outSlope: 0
      tangentMode: 0
      weightedMode: 0
      inWeight: 0.33333334
      outWeight: 0.33333334
    m_PreInfinity: 2
    m_PostInfinity: 2
    m_RotationOrder: 4
  reverbZoneMixCustomCurve:
    serializedVersion: 2
    m_Curve:
    - serializedVersion: 3
      time: 0
      value: 1
      inSlope: 0
      outSlope: 0
      tangentMode: 0
      weightedMode: 0
      inWeight: 0.33333334
      outWeight: 0.33333334
    m_PreInfinity: 2
    m_PostInfinity: 2
    m_RotationOrder: 0
--- !u!114 &6423870892933062650
MonoBehaviour:
  m_ObjectHideFlags: 0
  m_CorrespondingSourceObject: {fileID: 0}
  m_PrefabInstance: {fileID: 0}
  m_PrefabAsset: {fileID: 0}
  m_GameObject: {fileID: 8190819447304556875}
  m_Enabled: 1
  m_EditorHideFlags: 0
  m_Script: {fileID: 11500000, guid: 5d73e31b105d54f408e93e500d06f2b5, type: 3}
  m_Name: 
  m_EditorClassIdentifier: 
  doorLeft: {fileID: 8188932556357070802}
  doorRight: {fileID: 8189185842462126729}
--- !u!1001 &8190819445292976982
PrefabInstance:
  m_ObjectHideFlags: 0
  serializedVersion: 2
  m_Modification:
    m_TransformParent: {fileID: 8190819447304556874}
    m_Modifications:
    - target: {fileID: 1945500173880598, guid: e8d67716b3656432d914de36d1184d45, type: 3}
      propertyPath: m_Layer
      value: 8
      objectReference: {fileID: 0}
    - target: {fileID: 1945500173880598, guid: e8d67716b3656432d914de36d1184d45, type: 3}
      propertyPath: m_IsActive
      value: 1
      objectReference: {fileID: 0}
    - target: {fileID: 1945500173880598, guid: e8d67716b3656432d914de36d1184d45, type: 3}
      propertyPath: m_StaticEditorFlags
      value: 0
      objectReference: {fileID: 0}
    - target: {fileID: 4305852610094212, guid: e8d67716b3656432d914de36d1184d45, type: 3}
      propertyPath: m_RootOrder
      value: 0
      objectReference: {fileID: 0}
    - target: {fileID: 4305852610094212, guid: e8d67716b3656432d914de36d1184d45, type: 3}
      propertyPath: m_LocalPosition.x
      value: 0
      objectReference: {fileID: 0}
    - target: {fileID: 4305852610094212, guid: e8d67716b3656432d914de36d1184d45, type: 3}
      propertyPath: m_LocalPosition.y
      value: 0
      objectReference: {fileID: 0}
    - target: {fileID: 4305852610094212, guid: e8d67716b3656432d914de36d1184d45, type: 3}
      propertyPath: m_LocalPosition.z
      value: 0
      objectReference: {fileID: 0}
    - target: {fileID: 4305852610094212, guid: e8d67716b3656432d914de36d1184d45, type: 3}
      propertyPath: m_LocalRotation.w
      value: 0.5
      objectReference: {fileID: 0}
    - target: {fileID: 4305852610094212, guid: e8d67716b3656432d914de36d1184d45, type: 3}
      propertyPath: m_LocalRotation.x
      value: -0.5
      objectReference: {fileID: 0}
    - target: {fileID: 4305852610094212, guid: e8d67716b3656432d914de36d1184d45, type: 3}
      propertyPath: m_LocalRotation.y
      value: 0.5
      objectReference: {fileID: 0}
    - target: {fileID: 4305852610094212, guid: e8d67716b3656432d914de36d1184d45, type: 3}
      propertyPath: m_LocalRotation.z
      value: 0.5
      objectReference: {fileID: 0}
    - target: {fileID: 4305852610094212, guid: e8d67716b3656432d914de36d1184d45, type: 3}
      propertyPath: m_LocalEulerAnglesHint.x
      value: -90.00001
      objectReference: {fileID: 0}
    - target: {fileID: 4305852610094212, guid: e8d67716b3656432d914de36d1184d45, type: 3}
      propertyPath: m_LocalEulerAnglesHint.y
      value: 90
      objectReference: {fileID: 0}
    m_RemovedComponents: []
  m_SourcePrefab: {fileID: 100100000, guid: e8d67716b3656432d914de36d1184d45, type: 3}
--- !u!4 &8188932556357070802 stripped
Transform:
  m_CorrespondingSourceObject: {fileID: 4305852610094212, guid: e8d67716b3656432d914de36d1184d45, type: 3}
  m_PrefabInstance: {fileID: 8190819445292976982}
  m_PrefabAsset: {fileID: 0}
--- !u!1001 &8190819446764513927
PrefabInstance:
  m_ObjectHideFlags: 0
  serializedVersion: 2
  m_Modification:
    m_TransformParent: {fileID: 8190819447304556874}
    m_Modifications:
    - target: {fileID: 1148737543665222, guid: 25ed497ca36fe4afbbb3a241a44035e2, type: 3}
      propertyPath: m_Layer
      value: 8
      objectReference: {fileID: 0}
    - target: {fileID: 1148737543665222, guid: 25ed497ca36fe4afbbb3a241a44035e2, type: 3}
      propertyPath: m_StaticEditorFlags
      value: 4294967295
      objectReference: {fileID: 0}
    - target: {fileID: 4246811276021814, guid: 25ed497ca36fe4afbbb3a241a44035e2, type: 3}
      propertyPath: m_RootOrder
      value: 2
      objectReference: {fileID: 0}
    - target: {fileID: 4246811276021814, guid: 25ed497ca36fe4afbbb3a241a44035e2, type: 3}
      propertyPath: m_LocalPosition.x
      value: 0
      objectReference: {fileID: 0}
    - target: {fileID: 4246811276021814, guid: 25ed497ca36fe4afbbb3a241a44035e2, type: 3}
      propertyPath: m_LocalPosition.y
      value: 0
      objectReference: {fileID: 0}
    - target: {fileID: 4246811276021814, guid: 25ed497ca36fe4afbbb3a241a44035e2, type: 3}
      propertyPath: m_LocalPosition.z
      value: 0
      objectReference: {fileID: 0}
    - target: {fileID: 4246811276021814, guid: 25ed497ca36fe4afbbb3a241a44035e2, type: 3}
      propertyPath: m_LocalRotation.w
      value: 0.5
      objectReference: {fileID: 0}
    - target: {fileID: 4246811276021814, guid: 25ed497ca36fe4afbbb3a241a44035e2, type: 3}
      propertyPath: m_LocalRotation.x
      value: -0.5
      objectReference: {fileID: 0}
    - target: {fileID: 4246811276021814, guid: 25ed497ca36fe4afbbb3a241a44035e2, type: 3}
      propertyPath: m_LocalRotation.y
      value: 0.5
      objectReference: {fileID: 0}
    - target: {fileID: 4246811276021814, guid: 25ed497ca36fe4afbbb3a241a44035e2, type: 3}
      propertyPath: m_LocalRotation.z
      value: 0.5
      objectReference: {fileID: 0}
    - target: {fileID: 4246811276021814, guid: 25ed497ca36fe4afbbb3a241a44035e2, type: 3}
      propertyPath: m_LocalEulerAnglesHint.x
      value: -90.00001
      objectReference: {fileID: 0}
    - target: {fileID: 4246811276021814, guid: 25ed497ca36fe4afbbb3a241a44035e2, type: 3}
      propertyPath: m_LocalEulerAnglesHint.y
      value: 90
      objectReference: {fileID: 0}
    m_RemovedComponents: []
  m_SourcePrefab: {fileID: 100100000, guid: 25ed497ca36fe4afbbb3a241a44035e2, type: 3}
--- !u!4 &8188868553475865265 stripped
Transform:
  m_CorrespondingSourceObject: {fileID: 4246811276021814, guid: 25ed497ca36fe4afbbb3a241a44035e2, type: 3}
  m_PrefabInstance: {fileID: 8190819446764513927}
  m_PrefabAsset: {fileID: 0}
--- !u!1001 &8190819446925398689
PrefabInstance:
  m_ObjectHideFlags: 0
  serializedVersion: 2
  m_Modification:
    m_TransformParent: {fileID: 8190819447304556874}
    m_Modifications:
    - target: {fileID: 1835801818997348, guid: a4645edf24a14487aa16adbc4bf27745, type: 3}
      propertyPath: m_Layer
      value: 8
      objectReference: {fileID: 0}
    - target: {fileID: 1835801818997348, guid: a4645edf24a14487aa16adbc4bf27745, type: 3}
      propertyPath: m_StaticEditorFlags
      value: 4294967295
      objectReference: {fileID: 0}
    - target: {fileID: 4136577714694324, guid: a4645edf24a14487aa16adbc4bf27745, type: 3}
      propertyPath: m_RootOrder
      value: 3
      objectReference: {fileID: 0}
    - target: {fileID: 4136577714694324, guid: a4645edf24a14487aa16adbc4bf27745, type: 3}
      propertyPath: m_LocalPosition.x
      value: 0
      objectReference: {fileID: 0}
    - target: {fileID: 4136577714694324, guid: a4645edf24a14487aa16adbc4bf27745, type: 3}
      propertyPath: m_LocalPosition.y
      value: 0
      objectReference: {fileID: 0}
    - target: {fileID: 4136577714694324, guid: a4645edf24a14487aa16adbc4bf27745, type: 3}
      propertyPath: m_LocalPosition.z
      value: 0
      objectReference: {fileID: 0}
    - target: {fileID: 4136577714694324, guid: a4645edf24a14487aa16adbc4bf27745, type: 3}
      propertyPath: m_LocalRotation.w
      value: 0.5
      objectReference: {fileID: 0}
    - target: {fileID: 4136577714694324, guid: a4645edf24a14487aa16adbc4bf27745, type: 3}
      propertyPath: m_LocalRotation.x
      value: -0.5
      objectReference: {fileID: 0}
    - target: {fileID: 4136577714694324, guid: a4645edf24a14487aa16adbc4bf27745, type: 3}
      propertyPath: m_LocalRotation.y
      value: 0.5
      objectReference: {fileID: 0}
    - target: {fileID: 4136577714694324, guid: a4645edf24a14487aa16adbc4bf27745, type: 3}
      propertyPath: m_LocalRotation.z
      value: 0.5
      objectReference: {fileID: 0}
    - target: {fileID: 4136577714694324, guid: a4645edf24a14487aa16adbc4bf27745, type: 3}
      propertyPath: m_LocalEulerAnglesHint.x
      value: -90.00001
      objectReference: {fileID: 0}
    - target: {fileID: 4136577714694324, guid: a4645edf24a14487aa16adbc4bf27745, type: 3}
      propertyPath: m_LocalEulerAnglesHint.y
      value: 90
      objectReference: {fileID: 0}
    m_RemovedComponents: []
  m_SourcePrefab: {fileID: 100100000, guid: a4645edf24a14487aa16adbc4bf27745, type: 3}
--- !u!4 &8188969991238629909 stripped
Transform:
  m_CorrespondingSourceObject: {fileID: 4136577714694324, guid: a4645edf24a14487aa16adbc4bf27745, type: 3}
  m_PrefabInstance: {fileID: 8190819446925398689}
  m_PrefabAsset: {fileID: 0}
--- !u!1001 &8190819447270111325
PrefabInstance:
  m_ObjectHideFlags: 0
  serializedVersion: 2
  m_Modification:
    m_TransformParent: {fileID: 8190819447304556874}
    m_Modifications:
    - target: {fileID: 1841248865720924, guid: a278f26168d4240f1b6750a38747bc3d, type: 3}
      propertyPath: m_Layer
      value: 8
      objectReference: {fileID: 0}
    - target: {fileID: 1841248865720924, guid: a278f26168d4240f1b6750a38747bc3d, type: 3}
      propertyPath: m_StaticEditorFlags
      value: 0
      objectReference: {fileID: 0}
    - target: {fileID: 4072321668713172, guid: a278f26168d4240f1b6750a38747bc3d, type: 3}
      propertyPath: m_RootOrder
      value: 1
      objectReference: {fileID: 0}
    - target: {fileID: 4072321668713172, guid: a278f26168d4240f1b6750a38747bc3d, type: 3}
      propertyPath: m_LocalPosition.x
      value: 0
      objectReference: {fileID: 0}
    - target: {fileID: 4072321668713172, guid: a278f26168d4240f1b6750a38747bc3d, type: 3}
      propertyPath: m_LocalPosition.y
      value: 0
      objectReference: {fileID: 0}
    - target: {fileID: 4072321668713172, guid: a278f26168d4240f1b6750a38747bc3d, type: 3}
      propertyPath: m_LocalPosition.z
      value: 0
      objectReference: {fileID: 0}
    - target: {fileID: 4072321668713172, guid: a278f26168d4240f1b6750a38747bc3d, type: 3}
      propertyPath: m_LocalRotation.w
      value: 0.5
      objectReference: {fileID: 0}
    - target: {fileID: 4072321668713172, guid: a278f26168d4240f1b6750a38747bc3d, type: 3}
      propertyPath: m_LocalRotation.x
      value: -0.5
      objectReference: {fileID: 0}
    - target: {fileID: 4072321668713172, guid: a278f26168d4240f1b6750a38747bc3d, type: 3}
      propertyPath: m_LocalRotation.y
      value: 0.5
      objectReference: {fileID: 0}
    - target: {fileID: 4072321668713172, guid: a278f26168d4240f1b6750a38747bc3d, type: 3}
      propertyPath: m_LocalRotation.z
      value: 0.5
      objectReference: {fileID: 0}
    - target: {fileID: 4072321668713172, guid: a278f26168d4240f1b6750a38747bc3d, type: 3}
      propertyPath: m_LocalEulerAnglesHint.x
      value: -90.00001
      objectReference: {fileID: 0}
    - target: {fileID: 4072321668713172, guid: a278f26168d4240f1b6750a38747bc3d, type: 3}
      propertyPath: m_LocalEulerAnglesHint.y
      value: 90
      objectReference: {fileID: 0}
    m_RemovedComponents: []
  m_SourcePrefab: {fileID: 100100000, guid: a278f26168d4240f1b6750a38747bc3d, type: 3}
--- !u!4 &8189185842462126729 stripped
Transform:
  m_CorrespondingSourceObject: {fileID: 4072321668713172, guid: a278f26168d4240f1b6750a38747bc3d, type: 3}
  m_PrefabInstance: {fileID: 8190819447270111325}
  m_PrefabAsset: {fileID: 0}
