{
    "name": "XRI Default Input Actions",
    "maps": [
        {
            "name": "XRI Head",
            "id": "09ff3ccc-21b4-4346-a3a2-7c978b5af892",
            "actions": [
                {
                    "name": "Position",
                    "type": "Value",
                    "id": "1a9029f8-7a46-46b9-9eff-e9ae8365f611",
                    "expectedControlType": "Vector3",
                    "processors": "",
                    "interactions": "",
                    "initialStateCheck": true
                },
                {
                    "name": "Rotation",
                    "type": "Value",
                    "id": "aed87fe6-2b01-4dd2-a8fa-195578fd8158",
                    "expectedControlType": "Quaternion",
                    "processors": "",
                    "interactions": "",
                    "initialStateCheck": true
                }
            ],
            "bindings": [
                {
                    "name": "",
                    "id": "cff1f981-6e1f-4e2c-a90c-715a0ea2e80e",
                    "path": "<XRHMD>/centerEyePosition",
                    "interactions": "",
                    "processors": "",
                    "groups": "Generic XR Controller",
                    "action": "Position",
                    "isComposite": false,
                    "isPartOfComposite": false
                },
                {
                    "name": "",
                    "id": "e2017383-a3f6-4c46-acb1-012b8eece9cc",
                    "path": "<XRHMD>/centerEyeRotation",
                    "interactions": "",
                    "processors": "",
                    "groups": "Generic XR Controller",
                    "action": "Rotation",
                    "isComposite": false,
                    "isPartOfComposite": false
                }
            ]
        },
        {
            "name": "XRI LeftHand",
            "id": "5fe596f9-1b7b-49b7-80a7-3b5195caf74d",
            "actions": [
                {
                    "name": "Position",
                    "type": "Value",
                    "id": "83a7af0b-87e3-42c3-a909-95fbf8091e4f",
                    "expectedControlType": "Vector3",
                    "processors": "",
                    "interactions": "",
                    "initialStateCheck": true
                },
                {
                    "name": "Rotation",
                    "type": "Value",
                    "id": "cb6b7130-2bac-4ef7-abe4-6991ae7d419d",
                    "expectedControlType": "Quaternion",
                    "processors": "",
                    "interactions": "",
                    "initialStateCheck": true
                },
                {
                    "name": "Tracking State",
                    "type": "Value",
                    "id": "d20fc51c-7916-43a7-8b03-706049966aea",
                    "expectedControlType": "Integer",
                    "processors": "",
                    "interactions": "",
                    "initialStateCheck": true
                },
                {
                    "name": "Haptic Device",
                    "type": "PassThrough",
                    "id": "664a62b0-e178-421d-b3f8-014eec01591d",
                    "expectedControlType": "",
                    "processors": "",
                    "interactions": "",
                    "initialStateCheck": false
                }
            ],
            "bindings": [
                {
                    "name": "Quaternion Fallback",
                    "id": "61466a56-4ee4-47b1-aa6a-4806de1de5f2",
                    "path": "QuaternionFallback",
                    "interactions": "",
                    "processors": "",
                    "groups": "",
                    "action": "Rotation",
                    "isComposite": true,
                    "isPartOfComposite": false
                },
                {
                    "name": "first",
                    "id": "afdcfbff-e241-4fdd-a6d1-23b0bf273360",
                    "path": "<XRController>{LeftHand}/pointerRotation",
                    "interactions": "",
                    "processors": "",
                    "groups": "Generic XR Controller",
                    "action": "Rotation",
                    "isComposite": false,
                    "isPartOfComposite": true
                },
                {
                    "name": "second",
                    "id": "ed03d944-4c09-4c38-8b68-5c844e18ca7c",
                    "path": "<XRController>{LeftHand}/deviceRotation",
                    "interactions": "",
                    "processors": "",
                    "groups": "Generic XR Controller",
                    "action": "Rotation",
                    "isComposite": false,
                    "isPartOfComposite": true
                },
                {
                    "name": "third",
                    "id": "c98fc8c8-7fc6-4909-89b6-c5b7568e7275",
                    "path": "",
                    "interactions": "",
                    "processors": "",
                    "groups": "Generic XR Controller",
                    "action": "Rotation",
                    "isComposite": false,
                    "isPartOfComposite": true
                },
                {
                    "name": "Vector 3 Fallback",
                    "id": "14aeff85-d719-43ff-a124-b1cd7ca8686d",
                    "path": "Vector3Fallback",
                    "interactions": "",
                    "processors": "",
                    "groups": "",
                    "action": "Position",
                    "isComposite": true,
                    "isPartOfComposite": false
                },
                {
                    "name": "first",
                    "id": "abf752ec-feee-4d51-b530-f0870f48acc9",
                    "path": "<XRController>{LeftHand}/pointerPosition",
                    "interactions": "",
                    "processors": "",
                    "groups": "Generic XR Controller",
                    "action": "Position",
                    "isComposite": false,
                    "isPartOfComposite": true
                },
                {
                    "name": "second",
                    "id": "6580b669-0651-401c-9779-85ef22689130",
                    "path": "<XRController>{LeftHand}/devicePosition",
                    "interactions": "",
                    "processors": "",
                    "groups": "Generic XR Controller",
                    "action": "Position",
                    "isComposite": false,
                    "isPartOfComposite": true
                },
                {
                    "name": "third",
                    "id": "ae101942-9eaa-4c53-a388-cafc3fd89bdf",
                    "path": "",
                    "interactions": "",
                    "processors": "",
                    "groups": "Generic XR Controller",
                    "action": "Position",
                    "isComposite": false,
                    "isPartOfComposite": true
                },
                {
                    "name": "",
                    "id": "acdf9550-5529-4ff7-8558-73ecdf0d75bd",
                    "path": "<XRController>{LeftHand}/*",
                    "interactions": "",
                    "processors": "",
                    "groups": "Generic XR Controller",
                    "action": "Haptic Device",
                    "isComposite": false,
                    "isPartOfComposite": false
                },
                {
                    "name": "",
                    "id": "97a0351f-659b-482a-8fa0-19015ccd055e",
                    "path": "<XRController>{LeftHand}/trackingState",
                    "interactions": "",
                    "processors": "",
                    "groups": "Generic XR Controller",
                    "action": "Tracking State",
                    "isComposite": false,
                    "isPartOfComposite": false
                }
            ]
        },
        {
            "name": "XRI LeftHand Interaction",
            "id": "7a5e7537-cc30-4eb1-a544-6946baa8f3eb",
            "actions": [
                {
                    "name": "Select",
                    "type": "Button",
                    "id": "33754c03-48ec-46ef-9bc6-22ed6bfdd8e8",
                    "expectedControlType": "Button",
                    "processors": "",
                    "interactions": "",
                    "initialStateCheck": false
                },
                {
                    "name": "Select Value",
                    "type": "Value",
                    "id": "e6005f29-e4c1-4f3b-8bf7-3a28bab5ca9c",
                    "expectedControlType": "Axis",
                    "processors": "",
                    "interactions": "",
                    "initialStateCheck": true
                },
                {
                    "name": "Activate",
                    "type": "Button",
                    "id": "0c0991c5-d329-4afc-8892-1076b440477c",
                    "expectedControlType": "Button",
                    "processors": "",
                    "interactions": "",
                    "initialStateCheck": false
                },
                {
                    "name": "Activate Value",
                    "type": "Value",
                    "id": "0c3d0ec9-85a1-45b3-839b-1ca43f859ecd",
                    "expectedControlType": "Axis",
                    "processors": "",
                    "interactions": "",
                    "initialStateCheck": true
                },
                {
                    "name": "UI Press",
                    "type": "Button",
                    "id": "7e1eced7-c774-4fe5-be8f-d8711f646d9e",
                    "expectedControlType": "Button",
                    "processors": "",
                    "interactions": "",
                    "initialStateCheck": false
                },
                {
                    "name": "UI Press Value",
                    "type": "Value",
                    "id": "f241c1aa-1050-4338-b2bf-a4a47776693d",
                    "expectedControlType": "Axis",
                    "processors": "",
                    "interactions": "",
                    "initialStateCheck": true
                },
                {
                    "name": "Rotate Anchor",
                    "type": "Value",
                    "id": "21b75b25-12ad-410f-b4f8-a7745b7aca27",
                    "expectedControlType": "Vector2",
                    "processors": "",
                    "interactions": "",
                    "initialStateCheck": true
                },
                {
                    "name": "Translate Anchor",
                    "type": "Value",
                    "id": "bfa204c7-3c92-4193-bad1-39eb71920042",
                    "expectedControlType": "Vector2",
                    "processors": "",
                    "interactions": "",
                    "initialStateCheck": true
                }
            ],
            "bindings": [
                {
                    "name": "",
                    "id": "71a4d23f-3e9a-4513-923b-ba388c5e84bf",
                    "path": "<XRController>{LeftHand}/gripPressed",
                    "interactions": "",
                    "processors": "",
                    "groups": "Generic XR Controller",
                    "action": "Select",
                    "isComposite": false,
                    "isPartOfComposite": false
                },
                {
                    "name": "",
                    "id": "49a23327-a116-48c0-8af9-0d2c50c15a88",
                    "path": "<XRController>{LeftHand}/grip",
                    "interactions": "",
                    "processors": "",
                    "groups": "Generic XR Controller",
                    "action": "Select Value",
                    "isComposite": false,
                    "isPartOfComposite": false
                },
                {
                    "name": "",
                    "id": "487f4f2e-9e9b-49aa-b0f2-4037a24624f5",
                    "path": "<XRController>{LeftHand}/triggerPressed",
                    "interactions": "",
                    "processors": "",
                    "groups": "Generic XR Controller",
                    "action": "Activate",
                    "isComposite": false,
                    "isPartOfComposite": false
                },
                {
                    "name": "",
                    "id": "3b8b1b59-2fdc-4998-8259-50341075d9a2",
                    "path": "<XRController>{LeftHand}/trigger",
                    "interactions": "",
                    "processors": "",
                    "groups": "Generic XR Controller",
                    "action": "Activate Value",
                    "isComposite": false,
                    "isPartOfComposite": false
                },
                {
                    "name": "",
                    "id": "b34c79c1-ab5e-4851-87ac-abc43705eae0",
                    "path": "<XRController>{LeftHand}/triggerPressed",
                    "interactions": "",
                    "processors": "",
                    "groups": "Generic XR Controller",
                    "action": "UI Press",
                    "isComposite": false,
                    "isPartOfComposite": false
                },
                {
                    "name": "",
                    "id": "71d94579-1bf4-4034-ab9e-e7166842128f",
                    "path": "<XRController>{LeftHand}/trigger",
                    "interactions": "",
                    "processors": "",
                    "groups": "Generic XR Controller",
                    "action": "UI Press Value",
                    "isComposite": false,
                    "isPartOfComposite": false
                },
                {
                    "name": "",
                    "id": "8ed313a6-c966-4669-8a62-4bb2319d485b",
                    "path": "<XRController>{LeftHand}/Primary2DAxis",
                    "interactions": "",
                    "processors": "ScaleVector2(y=0),StickDeadzone",
                    "groups": "Generic XR Controller",
                    "action": "Rotate Anchor",
                    "isComposite": false,
                    "isPartOfComposite": false
                },
                {
                    "name": "",
                    "id": "370f21e3-a80b-4b07-990b-299c2da0929a",
                    "path": "<XRController>{LeftHand}/Primary2DAxis",
                    "interactions": "",
                    "processors": "ScaleVector2(x=0),StickDeadzone",
                    "groups": "Generic XR Controller",
                    "action": "Translate Anchor",
                    "isComposite": false,
                    "isPartOfComposite": false
                }
            ]
        },
        {
            "name": "XRI LeftHand Locomotion",
            "id": "22336389-9fb1-4c2c-8635-0ed30db0d29e",
            "actions": [
                {
                    "name": "Teleport Select",
                    "type": "Button",
                    "id": "cbeaf823-3b69-4004-8ec8-13ea2ca3fc31",
                    "expectedControlType": "Button",
                    "processors": "",
                    "interactions": "",
                    "initialStateCheck": true
                },
                {
                    "name": "Turn",
                    "type": "Value",
                    "id": "9164e093-ebd4-4923-af32-1b52f31c2d66",
                    "expectedControlType": "Vector2",
                    "processors": "",
                    "interactions": "",
                    "initialStateCheck": true
                },
                {
                    "name": "Move",
                    "type": "Value",
                    "id": "9693e25f-8a4f-4aed-842f-3961243c69a1",
                    "expectedControlType": "Vector2",
                    "processors": "",
                    "interactions": "",
                    "initialStateCheck": true
                }
            ],
            "bindings": [
                {
                    "name": "",
                    "id": "95fa1419-ca7b-4c8a-8d15-7d46e58d82e3",
                    "path": "<XRController>{LeftHand}/secondaryButton",
                    "interactions": "Press",
                    "processors": "",
                    "groups": "Noncontinuous Move;Generic XR Controller",
                    "action": "Teleport Select",
                    "isComposite": false,
                    "isPartOfComposite": false
                },
                {
                    "name": "",
                    "id": "99cb7ad1-51ec-4611-af68-92a85f2c17d6",
                    "path": "<XRController>{LeftHand}/Primary2DAxis",
                    "interactions": "Sector(directions=12,sweepBehavior=1),Sector(directions=2,sweepBehavior=2)",
                    "processors": "",
                    "groups": "Noncontinuous Move",
                    "action": "Turn",
                    "isComposite": false,
                    "isPartOfComposite": false
                },
                {
                    "name": "",
                    "id": "8e383b1a-270f-4c20-819b-89a59cffb498",
                    "path": "<XRController>{LeftHand}/Primary2DAxis",
                    "interactions": "",
                    "processors": "StickDeadzone",
                    "groups": "Continuous Move",
                    "action": "Move",
                    "isComposite": false,
                    "isPartOfComposite": false
                }
            ]
        },
        {
            "name": "XRI RightHand",
            "id": "7960f8ef-2bf3-4281-aecc-4c03809d6c8c",
            "actions": [
                {
                    "name": "Position",
                    "type": "Value",
                    "id": "c4990d70-7b8a-4ce1-b03c-da86716b8352",
                    "expectedControlType": "Vector3",
                    "processors": "",
                    "interactions": "",
                    "initialStateCheck": true
                },
                {
                    "name": "Rotation",
                    "type": "Value",
                    "id": "ee6bf5bf-bb0a-4a50-8327-cb654b19e298",
                    "expectedControlType": "Quaternion",
                    "processors": "",
                    "interactions": "",
                    "initialStateCheck": true
                },
                {
                    "name": "Tracking State",
                    "type": "Value",
                    "id": "167ea203-5bfb-4d74-bde9-8026b7483102",
                    "expectedControlType": "Integer",
                    "processors": "",
                    "interactions": "",
                    "initialStateCheck": true
                },
                {
                    "name": "Haptic Device",
                    "type": "PassThrough",
                    "id": "57b2a1b4-3290-46d6-ac07-4854ee8f91b1",
                    "expectedControlType": "",
                    "processors": "",
                    "interactions": "",
                    "initialStateCheck": false
                }
            ],
            "bindings": [
                {
                    "name": "Quaternion Fallback",
                    "id": "84e51e1c-1b95-4f3e-a61f-29da6c1f0816",
                    "path": "QuaternionFallback",
                    "interactions": "",
                    "processors": "",
                    "groups": "",
                    "action": "Rotation",
                    "isComposite": true,
                    "isPartOfComposite": false
                },
                {
                    "name": "first",
                    "id": "3722d501-eb80-4f61-9361-08a5ea7a1394",
                    "path": "<XRController>{RightHand}/pointerRotation",
                    "interactions": "",
                    "processors": "",
                    "groups": "Generic XR Controller",
                    "action": "Rotation",
                    "isComposite": false,
                    "isPartOfComposite": true
                },
                {
                    "name": "second",
                    "id": "2e6ad191-d5aa-4919-aac6-295c83387a72",
                    "path": "<XRController>{RightHand}/deviceRotation",
                    "interactions": "",
                    "processors": "",
                    "groups": "Generic XR Controller",
                    "action": "Rotation",
                    "isComposite": false,
                    "isPartOfComposite": true
                },
                {
                    "name": "third",
                    "id": "b9ecb60d-341e-47cf-b50a-41d5815af8b0",
                    "path": "",
                    "interactions": "",
                    "processors": "",
                    "groups": "Generic XR Controller",
                    "action": "Rotation",
                    "isComposite": false,
                    "isPartOfComposite": true
                },
                {
                    "name": "Vector 3 Fallback",
                    "id": "74e968f1-ad08-4a82-a68d-764517faecef",
                    "path": "Vector3Fallback",
                    "interactions": "",
                    "processors": "",
                    "groups": "",
                    "action": "Position",
                    "isComposite": true,
                    "isPartOfComposite": false
                },
                {
                    "name": "first",
                    "id": "9717e367-64a4-440a-9974-1e641d753eb2",
                    "path": "<XRController>{RightHand}/pointerPosition",
                    "interactions": "",
                    "processors": "",
                    "groups": "Generic XR Controller",
                    "action": "Position",
                    "isComposite": false,
                    "isPartOfComposite": true
                },
                {
                    "name": "second",
                    "id": "0794a41d-29ef-48ec-a452-6b7de29b52fa",
                    "path": "<XRController>{RightHand}/devicePosition",
                    "interactions": "",
                    "processors": "",
                    "groups": "Generic XR Controller",
                    "action": "Position",
                    "isComposite": false,
                    "isPartOfComposite": true
                },
                {
                    "name": "third",
                    "id": "3ef0a781-60c5-48bc-a584-f95553f8ae0a",
                    "path": "",
                    "interactions": "",
                    "processors": "",
                    "groups": "Generic XR Controller",
                    "action": "Position",
                    "isComposite": false,
                    "isPartOfComposite": true
                },
                {
                    "name": "",
                    "id": "6011e1e6-b2dd-4cb1-8da5-29b03868f2c5",
                    "path": "<XRController>{RightHand}/*",
                    "interactions": "",
                    "processors": "",
                    "groups": "Generic XR Controller",
                    "action": "Haptic Device",
                    "isComposite": false,
                    "isPartOfComposite": false
                },
                {
                    "name": "",
                    "id": "03ccbaec-eeca-4fc4-8281-ee1758b4eb9b",
                    "path": "<XRController>{RightHand}/trackingState",
                    "interactions": "",
                    "processors": "",
                    "groups": "Generic XR Controller",
                    "action": "Tracking State",
                    "isComposite": false,
                    "isPartOfComposite": false
                }
            ]
        },
        {
            "name": "XRI RightHand Interaction",
            "id": "461bce25-7762-40c5-b639-f190649be6d6",
            "actions": [
                {
                    "name": "Select",
                    "type": "Button",
                    "id": "ac96c10b-c955-4a46-8e67-bf16bc069b53",
                    "expectedControlType": "Button",
                    "processors": "",
                    "interactions": "",
                    "initialStateCheck": false
                },
                {
                    "name": "Select Value",
                    "type": "Value",
                    "id": "39bbf1ac-21a3-413d-90f6-6dbf6efeaabe",
                    "expectedControlType": "Axis",
                    "processors": "",
                    "interactions": "",
                    "initialStateCheck": true
                },
                {
                    "name": "Activate",
                    "type": "Button",
                    "id": "41976d89-60de-4deb-bff9-16b4af96b290",
                    "expectedControlType": "Button",
                    "processors": "",
                    "interactions": "",
                    "initialStateCheck": false
                },
                {
                    "name": "Activate Value",
                    "type": "Value",
                    "id": "c3ca6ed7-3d25-44a2-b1d8-5be4eb699370",
                    "expectedControlType": "Axis",
                    "processors": "",
                    "interactions": "",
                    "initialStateCheck": true
                },
                {
                    "name": "UI Press",
                    "type": "Button",
                    "id": "65174b45-c2ee-4f90-93bb-fb4084eaaab3",
                    "expectedControlType": "Button",
                    "processors": "",
                    "interactions": "",
                    "initialStateCheck": false
                },
                {
                    "name": "UI Press Value",
                    "type": "Value",
                    "id": "962ac033-ec42-4981-88a4-551ad9be6ecb",
                    "expectedControlType": "Axis",
                    "processors": "",
                    "interactions": "",
                    "initialStateCheck": true
                },
                {
                    "name": "Rotate Anchor",
                    "type": "Value",
                    "id": "9b5d8312-f609-4895-b70f-81a722b2ae11",
                    "expectedControlType": "Vector2",
                    "processors": "",
                    "interactions": "",
                    "initialStateCheck": true
                },
                {
                    "name": "Translate Anchor",
                    "type": "Value",
                    "id": "6f7cf253-7062-443b-b10f-2be48a33f027",
                    "expectedControlType": "Vector2",
                    "processors": "",
                    "interactions": "",
                    "initialStateCheck": true
                }
            ],
            "bindings": [
                {
                    "name": "",
                    "id": "1ce80054-410d-4112-a332-50faa7fb4f23",
                    "path": "<XRController>{RightHand}/gripPressed",
                    "interactions": "",
                    "processors": "",
                    "groups": "Generic XR Controller",
                    "action": "Select",
                    "isComposite": false,
                    "isPartOfComposite": false
                },
                {
                    "name": "",
                    "id": "dd433817-216c-46b9-8dd3-f3a4ea1767b9",
                    "path": "<XRController>{RightHand}/grip",
                    "interactions": "",
                    "processors": "",
                    "groups": "Generic XR Controller",
                    "action": "Select Value",
                    "isComposite": false,
                    "isPartOfComposite": false
                },
                {
                    "name": "",
                    "id": "fa59aed1-ae0b-4074-a58c-294b85f46228",
                    "path": "<XRController>{RightHand}/triggerPressed",
                    "interactions": "",
                    "processors": "",
                    "groups": "Generic XR Controller",
                    "action": "Activate",
                    "isComposite": false,
                    "isPartOfComposite": false
                },
                {
                    "name": "",
                    "id": "150f414f-61bf-47b1-b4f8-f772a2a40565",
                    "path": "<XRController>{RightHand}/trigger",
                    "interactions": "",
                    "processors": "",
                    "groups": "Generic XR Controller",
                    "action": "Activate Value",
                    "isComposite": false,
                    "isPartOfComposite": false
                },
                {
                    "name": "",
                    "id": "92bb5b8f-bf48-4dab-af05-50a865773895",
                    "path": "<XRController>{RightHand}/triggerPressed",
                    "interactions": "",
                    "processors": "",
                    "groups": "Generic XR Controller",
                    "action": "UI Press",
                    "isComposite": false,
                    "isPartOfComposite": false
                },
                {
                    "name": "",
                    "id": "5b4ef08d-9ddd-4f0a-8539-d1114d14d143",
                    "path": "<XRController>{RightHand}/trigger",
                    "interactions": "",
                    "processors": "",
                    "groups": "Generic XR Controller",
                    "action": "UI Press Value",
                    "isComposite": false,
                    "isPartOfComposite": false
                },
                {
                    "name": "",
                    "id": "5c0fa06c-b670-477f-a95d-eb3b4880e439",
                    "path": "<XRController>{RightHand}/Primary2DAxis",
                    "interactions": "",
                    "processors": "ScaleVector2(y=0),StickDeadzone",
                    "groups": "Generic XR Controller",
                    "action": "Rotate Anchor",
                    "isComposite": false,
                    "isPartOfComposite": false
                },
                {
                    "name": "",
                    "id": "4caf4e8d-13e5-4bd6-8f42-b6b99c315ad0",
                    "path": "<XRController>{RightHand}/Primary2DAxis",
                    "interactions": "",
                    "processors": "ScaleVector2(x=0),StickDeadzone",
                    "groups": "Generic XR Controller",
                    "action": "Translate Anchor",
                    "isComposite": false,
                    "isPartOfComposite": false
                }
            ]
        },
        {
            "name": "XRI RightHand Locomotion",
            "id": "99ce76d3-82c5-4289-9670-2ecffa6833fd",
            "actions": [
                {
                    "name": "Teleport Select",
                    "type": "Button",
                    "id": "02e43582-8973-4940-af06-dff6158e3df2",
                    "expectedControlType": "Button",
                    "processors": "",
                    "interactions": "",
                    "initialStateCheck": true
                },
                {
                    "name": "Turn",
                    "type": "Value",
                    "id": "9fb2eb2b-2fb6-4328-8167-10a1bf11b424",
                    "expectedControlType": "Vector2",
                    "processors": "",
                    "interactions": "",
                    "initialStateCheck": true
                },
                {
                    "name": "Move",
                    "type": "Value",
                    "id": "00a4dc9f-1ee6-4349-b0e9-72d5dccaadd6",
                    "expectedControlType": "Vector2",
                    "processors": "",
                    "interactions": "",
                    "initialStateCheck": true
                }
            ],
            "bindings": [
                {
                    "name": "",
                    "id": "919c4a6c-22ed-4083-8e14-f30e91ff59fe",
                    "path": "<XRController>{RightHand}/secondaryButton",
                    "interactions": "Press",
                    "processors": "",
                    "groups": "Generic XR Controller;Noncontinuous Move",
                    "action": "Teleport Select",
                    "isComposite": false,
                    "isPartOfComposite": false
                },
                {
                    "name": "",
                    "id": "d6c08c3d-3d41-4695-994d-1ac9016a5a9e",
                    "path": "<XRController>{RightHand}/Primary2DAxis",
                    "interactions": "Sector(directions=12,sweepBehavior=1),Sector(directions=2,sweepBehavior=2)",
                    "processors": "",
                    "groups": "Generic XR Controller",
                    "action": "Turn",
                    "isComposite": false,
                    "isPartOfComposite": false
                },
                {
                    "name": "",
                    "id": "022046aa-be71-4288-859d-6dd42844f6e6",
                    "path": "<XRController>{RightHand}/Primary2DAxis",
                    "interactions": "",
                    "processors": "StickDeadzone",
                    "groups": "Continuous Move",
                    "action": "Move",
                    "isComposite": false,
                    "isPartOfComposite": false
                }
            ]
        },
        {
            "name": "XRI UI",
            "id": "edd65a7c-601c-4915-8307-025a081d8790",
            "actions": [
                {
                    "name": "Navigate",
                    "type": "PassThrough",
                    "id": "c9a92aca-49d5-4910-8ade-8e994f0a31f0",
                    "expectedControlType": "Vector2",
                    "processors": "",
                    "interactions": "",
                    "initialStateCheck": false
                },
                {
                    "name": "Submit",
                    "type": "Button",
                    "id": "eba98c2e-6268-4233-bb88-946287bc753c",
                    "expectedControlType": "Button",
                    "processors": "",
                    "interactions": "",
                    "initialStateCheck": false
                },
                {
                    "name": "Cancel",
                    "type": "Button",
                    "id": "448b396b-0885-4543-ac5a-8b3405da6791",
                    "expectedControlType": "Button",
                    "processors": "",
                    "interactions": "",
                    "initialStateCheck": false
                },
                {
                    "name": "Point",
                    "type": "PassThrough",
                    "id": "682022c0-857a-4332-8753-7f8fcdf84d37",
                    "expectedControlType": "Vector2",
                    "processors": "",
                    "interactions": "",
                    "initialStateCheck": true
                },
                {
                    "name": "Click",
                    "type": "PassThrough",
                    "id": "b194cd98-7e4f-457a-a60c-cebc25dc32a2",
                    "expectedControlType": "Button",
                    "processors": "",
                    "interactions": "",
                    "initialStateCheck": true
                },
                {
                    "name": "ScrollWheel",
                    "type": "PassThrough",
                    "id": "bd7fc534-75e3-489d-94fb-3d45cb78d8f3",
                    "expectedControlType": "Vector2",
                    "processors": "",
                    "interactions": "",
                    "initialStateCheck": false
                },
                {
                    "name": "MiddleClick",
                    "type": "PassThrough",
                    "id": "cc5f5666-a75c-4dfc-8566-ded8ec9b4ae3",
                    "expectedControlType": "Button",
                    "processors": "",
                    "interactions": "",
                    "initialStateCheck": false
                },
                {
                    "name": "RightClick",
                    "type": "PassThrough",
                    "id": "533aeb95-18b2-4a83-a69d-f6e0be72ff8a",
                    "expectedControlType": "Button",
                    "processors": "",
                    "interactions": "",
                    "initialStateCheck": false
                }
            ],
            "bindings": [
                {
                    "name": "",
                    "id": "e87fa299-8441-4620-89dd-0564c7d552e2",
                    "path": "<Mouse>/position",
                    "interactions": "",
                    "processors": "",
                    "groups": "",
                    "action": "Point",
                    "isComposite": false,
                    "isPartOfComposite": false
                },
                {
                    "name": "",
                    "id": "445a013e-9c17-48a2-9856-067e4826df03",
                    "path": "<Pen>/position",
                    "interactions": "",
                    "processors": "",
                    "groups": "",
                    "action": "Point",
                    "isComposite": false,
                    "isPartOfComposite": false
                },
                {
                    "name": "",
                    "id": "05c1e38e-79dd-41cb-95d5-74f42e65d92f",
                    "path": "<Touchscreen>/touch*/position",
                    "interactions": "",
                    "processors": "",
                    "groups": "",
                    "action": "Point",
                    "isComposite": false,
                    "isPartOfComposite": false
                },
                {
                    "name": "",
                    "id": "57909bb4-1088-4975-9227-ecc87a305257",
                    "path": "<Mouse>/leftButton",
                    "interactions": "",
                    "processors": "",
                    "groups": "",
                    "action": "Click",
                    "isComposite": false,
                    "isPartOfComposite": false
                },
                {
                    "name": "",
                    "id": "2740386d-d4b6-4342-903c-d9390783f04a",
                    "path": "<Pen>/tip",
                    "interactions": "",
                    "processors": "",
                    "groups": "",
                    "action": "Click",
                    "isComposite": false,
                    "isPartOfComposite": false
                },
                {
                    "name": "",
                    "id": "d6fd3bb5-c747-4eba-b599-1c6d7c738e2a",
                    "path": "<Mouse>/scroll",
                    "interactions": "",
                    "processors": "",
                    "groups": "",
                    "action": "ScrollWheel",
                    "isComposite": false,
                    "isPartOfComposite": false
                },
                {
                    "name": "",
                    "id": "fb2286cc-fa20-4564-bff6-9f790f12cf6b",
                    "path": "<Mouse>/middleButton",
                    "interactions": "",
                    "processors": "",
                    "groups": "",
                    "action": "MiddleClick",
                    "isComposite": false,
                    "isPartOfComposite": false
                },
                {
                    "name": "",
                    "id": "54eb7da2-546a-4d75-bfcc-ae38be303a59",
                    "path": "<Mouse>/rightButton",
                    "interactions": "",
                    "processors": "",
                    "groups": "",
                    "action": "RightClick",
                    "isComposite": false,
                    "isPartOfComposite": false
                },
                {
                    "name": "Gamepad",
                    "id": "4c9a5170-d325-45ee-8ef9-fc12d1f5a97e",
                    "path": "2DVector",
                    "interactions": "",
                    "processors": "",
                    "groups": "",
                    "action": "Navigate",
                    "isComposite": true,
                    "isPartOfComposite": false
                },
                {
                    "name": "up",
                    "id": "c846c708-b27e-4ac9-9a83-c80ac5c263d5",
                    "path": "<Gamepad>/leftStick/up",
                    "interactions": "",
                    "processors": "",
                    "groups": "",
                    "action": "Navigate",
                    "isComposite": false,
                    "isPartOfComposite": true
                },
                {
                    "name": "up",
                    "id": "caf2fb01-3e95-47c1-8663-315057149d48",
                    "path": "<Gamepad>/rightStick/up",
                    "interactions": "",
                    "processors": "",
                    "groups": "",
                    "action": "Navigate",
                    "isComposite": false,
                    "isPartOfComposite": true
                },
                {
                    "name": "down",
                    "id": "830d65e9-887d-45b4-8386-562deb29e465",
                    "path": "<Gamepad>/leftStick/down",
                    "interactions": "",
                    "processors": "",
                    "groups": "",
                    "action": "Navigate",
                    "isComposite": false,
                    "isPartOfComposite": true
                },
                {
                    "name": "down",
                    "id": "e5c71442-9909-46d8-aa56-8fa3574a8227",
                    "path": "<Gamepad>/rightStick/down",
                    "interactions": "",
                    "processors": "",
                    "groups": "",
                    "action": "Navigate",
                    "isComposite": false,
                    "isPartOfComposite": true
                },
                {
                    "name": "left",
                    "id": "210246e8-c3c4-4edc-be9c-1916858346df",
                    "path": "<Gamepad>/leftStick/left",
                    "interactions": "",
                    "processors": "",
                    "groups": "",
                    "action": "Navigate",
                    "isComposite": false,
                    "isPartOfComposite": true
                },
                {
                    "name": "left",
                    "id": "fb701ef0-9910-4639-80d1-2c1c03f871ed",
                    "path": "<Gamepad>/rightStick/left",
                    "interactions": "",
                    "processors": "",
                    "groups": "",
                    "action": "Navigate",
                    "isComposite": false,
                    "isPartOfComposite": true
                },
                {
                    "name": "right",
                    "id": "3de9f409-fb44-4311-8705-b4f4e7cd3029",
                    "path": "<Gamepad>/leftStick/right",
                    "interactions": "",
                    "processors": "",
                    "groups": "",
                    "action": "Navigate",
                    "isComposite": false,
                    "isPartOfComposite": true
                },
                {
                    "name": "right",
                    "id": "bd001ba1-d6a2-4a97-9c87-36b5b92728af",
                    "path": "<Gamepad>/rightStick/right",
                    "interactions": "",
                    "processors": "",
                    "groups": "",
                    "action": "Navigate",
                    "isComposite": false,
                    "isPartOfComposite": true
                },
                {
                    "name": "",
                    "id": "fcc0a2cd-a126-43ad-bb1e-ffc1ae7668c7",
                    "path": "<Gamepad>/dpad",
                    "interactions": "",
                    "processors": "",
                    "groups": "",
                    "action": "Navigate",
                    "isComposite": false,
                    "isPartOfComposite": false
                },
                {
                    "name": "Joystick",
                    "id": "65cbb13a-6e00-4973-9887-e49e06575091",
                    "path": "2DVector",
                    "interactions": "",
                    "processors": "",
                    "groups": "",
                    "action": "Navigate",
                    "isComposite": true,
                    "isPartOfComposite": false
                },
                {
                    "name": "up",
                    "id": "3c5803e2-42d0-4d48-bbd6-41ce4442df0b",
                    "path": "<Joystick>/stick/up",
                    "interactions": "",
                    "processors": "",
                    "groups": "",
                    "action": "Navigate",
                    "isComposite": false,
                    "isPartOfComposite": true
                },
                {
                    "name": "down",
                    "id": "d5b1219c-0df6-4bc5-ad11-205b748cade4",
                    "path": "<Joystick>/stick/down",
                    "interactions": "",
                    "processors": "",
                    "groups": "",
                    "action": "Navigate",
                    "isComposite": false,
                    "isPartOfComposite": true
                },
                {
                    "name": "left",
                    "id": "065d2394-f10a-46df-b6cb-2c56a6c842ea",
                    "path": "<Joystick>/stick/left",
                    "interactions": "",
                    "processors": "",
                    "groups": "",
                    "action": "Navigate",
                    "isComposite": false,
                    "isPartOfComposite": true
                },
                {
                    "name": "right",
                    "id": "29921809-7785-44a1-a316-e96307174552",
                    "path": "<Joystick>/stick/right",
                    "interactions": "",
                    "processors": "",
                    "groups": "",
                    "action": "Navigate",
                    "isComposite": false,
                    "isPartOfComposite": true
                },
                {
                    "name": "Keyboard",
                    "id": "49817cc8-fecc-406d-a187-6393de317e95",
                    "path": "2DVector",
                    "interactions": "",
                    "processors": "",
                    "groups": "",
                    "action": "Navigate",
                    "isComposite": true,
                    "isPartOfComposite": false
                },
                {
                    "name": "up",
                    "id": "ef33431d-17d0-4e1c-90f2-bbaa2ef9a8b7",
                    "path": "<Keyboard>/w",
                    "interactions": "",
                    "processors": "",
                    "groups": "",
                    "action": "Navigate",
                    "isComposite": false,
                    "isPartOfComposite": true
                },
                {
                    "name": "up",
                    "id": "5ddfdce2-0f11-4f4e-8931-0ae6fb289ac7",
                    "path": "<Keyboard>/upArrow",
                    "interactions": "",
                    "processors": "",
                    "groups": "",
                    "action": "Navigate",
                    "isComposite": false,
                    "isPartOfComposite": true
                },
                {
                    "name": "down",
                    "id": "5ceab4e0-1600-4bfb-acf6-8d02c4e10aea",
                    "path": "<Keyboard>/s",
                    "interactions": "",
                    "processors": "",
                    "groups": "",
                    "action": "Navigate",
                    "isComposite": false,
                    "isPartOfComposite": true
                },
                {
                    "name": "down",
                    "id": "94e10d8b-5bfa-439d-afae-b975efac2b7b",
                    "path": "<Keyboard>/downArrow",
                    "interactions": "",
                    "processors": "",
                    "groups": "",
                    "action": "Navigate",
                    "isComposite": false,
                    "isPartOfComposite": true
                },
                {
                    "name": "left",
                    "id": "9fc7d14a-385d-4ca5-b185-906e049b7eed",
                    "path": "<Keyboard>/a",
                    "interactions": "",
                    "processors": "",
                    "groups": "",
                    "action": "Navigate",
                    "isComposite": false,
                    "isPartOfComposite": true
                },
                {
                    "name": "left",
                    "id": "d7e5e0c4-05dc-4f2f-8649-a66fe843caed",
                    "path": "<Keyboard>/leftArrow",
                    "interactions": "",
                    "processors": "",
                    "groups": "",
                    "action": "Navigate",
                    "isComposite": false,
                    "isPartOfComposite": true
                },
                {
                    "name": "right",
                    "id": "76ab9656-e168-4b2c-9a6b-d8d6da981e4f",
                    "path": "<Keyboard>/d",
                    "interactions": "",
                    "processors": "",
                    "groups": "",
                    "action": "Navigate",
                    "isComposite": false,
                    "isPartOfComposite": true
                },
                {
                    "name": "right",
                    "id": "ad7bc5b3-6ada-42a2-9cba-5c7334cba7be",
                    "path": "<Keyboard>/rightArrow",
                    "interactions": "",
                    "processors": "",
                    "groups": "",
                    "action": "Navigate",
                    "isComposite": false,
                    "isPartOfComposite": true
                },
                {
                    "name": "",
                    "id": "9f2a7c29-a588-4b6a-a966-955eb408c526",
                    "path": "*/{Submit}",
                    "interactions": "",
                    "processors": "",
                    "groups": "",
                    "action": "Submit",
                    "isComposite": false,
                    "isPartOfComposite": false
                },
                {
                    "name": "",
                    "id": "67f51768-1493-4444-b118-82d398a16fdd",
                    "path": "*/{Cancel}",
                    "interactions": "",
                    "processors": "",
                    "groups": "",
                    "action": "Cancel",
                    "isComposite": false,
                    "isPartOfComposite": false
                },
                {
                    "name": "",
                    "id": "198e6869-709e-448d-96d4-27186c9d56e6",
                    "path": "<Touchscreen>/touch*/click",
                    "interactions": "",
                    "processors": "",
                    "groups": "",
                    "action": "Click",
                    "isComposite": false,
                    "isPartOfComposite": false
                }
            ]
        }
    ],
    "controlSchemes": [
        {
            "name": "Generic XR Controller",
            "bindingGroup": "Generic XR Controller",
            "devices": [
                {
                    "devicePath": "<XRController>{LeftHand}",
                    "isOptional": true,
                    "isOR": false
                },
                {
                    "devicePath": "<XRController>{RightHand}",
                    "isOptional": true,
                    "isOR": false
                },
                {
                    "devicePath": "<XRController>",
                    "isOptional": true,
                    "isOR": false
                },
                {
                    "devicePath": "<WMRHMD>",
                    "isOptional": true,
                    "isOR": false
                }
            ]
        },
        {
            "name": "Continuous Move",
            "bindingGroup": "Continuous Move",
            "devices": [
                {
                    "devicePath": "<XRController>{LeftHand}",
                    "isOptional": false,
                    "isOR": false
                },
                {
                    "devicePath": "<XRController>{RightHand}",
                    "isOptional": false,
                    "isOR": false
                }
            ]
        },
        {
            "name": "Noncontinuous Move",
            "bindingGroup": "Noncontinuous Move",
            "devices": [
                {
                    "devicePath": "<XRController>{LeftHand}",
                    "isOptional": false,
                    "isOR": false
                },
                {
                    "devicePath": "<XRController>{RightHand}",
                    "isOptional": false,
                    "isOR": false
                }
            ]
        }
    ]
}